[
{
  "model": "auth.user",
  "pk": 1,
  "fields": {
    "password": "pbkdf2_sha256$260000$HlGMnnjjLsWjuDyQ2hrLac$qO4DctCRyqKz3b0O8i0uYNqXLLZ2/i7p074rc8TgOXs=",
    "last_login": "2022-04-20T09:27:39Z",
    "is_superuser": true,
    "username": "admin",
    "first_name": "Талгат",
    "last_name": "Нургожин",
    "email": "",
    "is_staff": true,
    "is_active": true,
    "date_joined": "2022-04-20T09:27:02Z",
    "groups": [],
    "user_permissions": []
  }
},
{
  "model": "auth.user",
  "pk": 2,
  "fields": {
    "password": "pbkdf2_sha256$260000$QcCKxrNmOgLFOrVYKUKmPM$RrIBdqBnAchWq+/BHpC2zRLdiHA8eQWfEfiQ+L/KqWg=",
    "last_login": null,
    "is_superuser": false,
    "username": "Anar",
    "first_name": "Анар",
    "last_name": "Валханова",
    "email": "",
    "is_staff": false,
    "is_active": true,
    "date_joined": "2022-04-20T09:32:43Z",
    "groups": [],
    "user_permissions": []
  }
},
{
  "model": "auth.user",
  "pk": 3,
  "fields": {
    "password": "pbkdf2_sha256$260000$2awbJzTgOL8kyDBcBhobsN$WX4W0JTlxvi4LKqNiZA101gCcmT6ZK1UwGe1NAQ7wQw=",
    "last_login": null,
    "is_superuser": false,
    "username": "Aibol",
    "first_name": "Айбол",
    "last_name": "Нурмолдаев",
    "email": "",
    "is_staff": false,
    "is_active": true,
    "date_joined": "2022-04-20T09:36:52Z",
    "groups": [],
    "user_permissions": []
  }
},
{
  "model": "auth.user",
  "pk": 4,
  "fields": {
    "password": "pbkdf2_sha256$260000$mrTeztvibsfEiUbL3EUU91$PjbB8o4YjfcTp5+nGe1vB5roaYQLO3v1bej0LOJVzAw=",
    "last_login": null,
    "is_superuser": false,
    "username": "Aizhan",
    "first_name": "Айжан",
    "last_name": "Жанабаева",
    "email": "",
    "is_staff": false,
    "is_active": true,
    "date_joined": "2022-04-20T09:43:08Z",
    "groups": [],
    "user_permissions": []
  }
},
{
  "model": "auth.user",
  "pk": 5,
  "fields": {
    "password": "pbkdf2_sha256$260000$35WJt33PrsWOJfdqA3zTUU$14SK86npP/yZp9+YMAAjpF6+sU7QEthiw9AxJGpw2lY=",
    "last_login": null,
    "is_superuser": false,
    "username": "Ubaidilla",
    "first_name": "Убайдилла",
    "last_name": "Датхаев",
    "email": "",
    "is_staff": false,
    "is_active": true,
    "date_joined": "2022-04-20T09:48:08Z",
    "groups": [],
    "user_permissions": []
  }
},
{
  "model": "auth.user",
  "pk": 6,
  "fields": {
    "password": "pbkdf2_sha256$260000$5FDIw6puiwNex9uLd80zZO$FRO5of39HwrrL9mC9pduvrkhGGDAmNdahz60vLXtlWE=",
    "last_login": null,
    "is_superuser": false,
    "username": "Provost",
    "first_name": "Провост",
    "last_name": "Дайнюс",
    "email": "",
    "is_staff": false,
    "is_active": true,
    "date_joined": "2022-04-20T09:49:48Z",
    "groups": [],
    "user_permissions": []
  }
},
{
  "model": "auth.user",
  "pk": 7,
  "fields": {
    "password": "pbkdf2_sha256$260000$5eL9DnvxPqp0RyhL7ogvrw$CLpquaSNbxdY5IR82fcCqZBlCtOHunZdH9yNby0JWho=",
    "last_login": null,
    "is_superuser": false,
    "username": "Maxut",
    "first_name": "Максут",
    "last_name": "Сенбеков",
    "email": "",
    "is_staff": false,
    "is_active": true,
    "date_joined": "2022-04-20T09:52:01Z",
    "groups": [],
    "user_permissions": []
  }
},
{
  "model": "auth.user",
  "pk": 8,
  "fields": {
    "password": "pbkdf2_sha256$260000$vhxsJ9iD0KFQsPtSgbyD7J$Hztr+VFM3uJv0EMfUOoazJu0Lt+/CrVETK3dxBmUgV0=",
    "last_login": null,
    "is_superuser": false,
    "username": "Zhuldyztai",
    "first_name": "Жулдызтай",
    "last_name": "Исабаев",
    "email": "",
    "is_staff": false,
    "is_active": true,
    "date_joined": "2022-04-20T09:54:46Z",
    "groups": [],
    "user_permissions": []
  }
}
]
